{
    "description": "Argument schemas for sync control commands",
    "args": {
        "start": {
            "description": "Start syncing two storages, or perform a one-shot sync",
            "type": "object",
            "required": ["container-name", "job-id", "source", "target", "continuous", "unidirectional"],
            "additionalProperties": false,
            "properties": {
                "container-name": {
                    "type": "string",
                    "description": "container name (for display purposes only)"
                },
                "job-id": {
                    "type": "string",
                    "description": "unique sync job ID, currently container_owner|container_uuid"
                },
                "source": {
                    "type": "object",
                    "description": "source backend params"
                },
                "target": {
                    "type": "object",
                    "description": "target backend params"
                },
                "continuous": {
                    "type": "boolean",
                    "description": "whether to sync until stopped"
                },
                "unidirectional": {
                    "type": "boolean",
                    "description": "perform one-way sync if true, two-way if false"
                }
            }
        },
        "stop": {
            "description": "Stop a sync job",
            "type": "object",
            "required": ["job-id"],
            "additionalProperties": false,
            "properties": {
                "job-id": {
                    "type": "string",
                    "description": "unique sync job ID, currently container_owner|container_uuid"
                }
            }
        },
        "test-error": {
            "description": "Cause an error in the specified job (for test purposes)",
            "type": "object",
            "required": ["job-id"],
            "additionalProperties": false,
            "properties": {
                "job-id": {
                    "type": "string",
                    "description": "unique sync job ID, currently container_owner|container_uuid"
                }
            }
        },
        "stop-all": {
            "description": "Stop all sync jobs",
            "type": "object",
            "additionalProperties": false
        },
        "job-state": {
            "description": "Return state of a sync job",
            "type": "object",
            "required": ["job-id"],
            "additionalProperties": false,
            "properties": {
                "job-id": {
                    "type": "string",
                    "description": "unique sync job ID, currently container_owner|container_uuid"
                }
            }
        },
        "shutdown": {
            "description": "Stop all sync jobs and shut down the daemon",
            "type": "object",
            "additionalProperties": false
        },
        "status": {
            "description": "Return a list of currently running sync jobs and their status",
            "type": "object",
            "additionalProperties": false
        }
    }
}
